<?xml version="1.0" encoding="UTF-16"?>
<!DOCTYPE svg PUBLIC "-//W3C//DTD SVG 1.1//EN" "http://www.w3.org/Graphics/SVG/1.1/DTD/svg11.dtd">
<!-- Creator: CorelDRAW 2020 -->
<svg xmlns="http://www.w3.org/2000/svg" xml:space="preserve" width="15px" height="15px" version="1.1" style="shape-rendering:geometricPrecision; text-rendering:geometricPrecision; image-rendering:optimizeQuality; fill-rule:evenodd; clip-rule:evenodd"
viewBox="0 0 8.46 8.45"
 xmlns:xlink="http://www.w3.org/1999/xlink"
 xmlns:xodm="http://www.corel.com/coreldraw/odm/2003">
 <defs>
  <style type="text/css">
   <![CDATA[
    .fil0 {fill:black;fill-rule:nonzero}
   ]]>
  </style>
 </defs>
 <g id="Layer_x0020_1">
  <metadata id="CorelCorpID_0Corel-Layer"/>
  <g id="edit.eps">
   <path class="fil0" d="M8.2 0.26c-0.36,-0.35 -0.92,-0.35 -1.28,0l-0.34 0.33 -6.28 0c-0.16,0 -0.3,0.14 -0.3,0.31l0 7.25c0,0.17 0.14,0.3 0.3,0.3l7.26 0c0.17,0 0.3,-0.13 0.3,-0.3l0 -6.27 0.34 -0.34c0.35,-0.36 0.35,-0.93 0,-1.28zm-0.94 7.59l-6.66 0 0 -6.65 5.38 0 -3.58 3.58c-0.04,0.04 -0.07,0.1 -0.08,0.16l-0.2 1.06c-0.02,0.1 0.01,0.2 0.08,0.27 0.06,0.06 0.14,0.09 0.22,0.09 0.02,0 0.03,0 0.05,0l1.06 -0.21c0.06,-0.01 0.12,-0.04 0.16,-0.08l3.57 -3.59 0 5.37zm0.51 -6.74l-4.44 4.46 -0.54 0.1 0.11 -0.53 4.44 -4.46c0.06,-0.06 0.14,-0.09 0.22,-0.09 0.08,0 0.16,0.03 0.21,0.09 0.06,0.06 0.09,0.14 0.09,0.22 0,0.08 -0.03,0.15 -0.09,0.21zm0 0z"/>
  </g>
 </g>
</svg>
